<svg width="128" height="128" viewBox="0 0 128 128" fill="none" xmlns="http://www.w3.org/2000/svg">
<path fill-rule="evenodd" clip-rule="evenodd" d="M115.756 103.814C116.152 104.218 116.019 104.995 115.459 105.55C114.921 106.083 114.185 106.218 113.776 105.871L113.727 105.825L108.641 100.762C86.3746 122.944 50.3424 122.918 28.1085 100.684C6.0712 78.6467 5.85083 43.0541 27.4474 20.7457L27.8601 20.325L23.7658 16.2484C23.3696 15.8449 23.5028 15.0677 24.0632 14.5124C24.6013 13.9793 25.3376 13.8445 25.7461 14.1915L25.7955 14.2374L115.756 103.814Z" fill="url(#paint0_linear)"/>
<path fill-rule="evenodd" clip-rule="evenodd" d="M84 77V46H40V77H84Z" fill="white"/>
<path d="M82.1 79H42.9C40.195 78.997 38.003 76.8009 38 74.0909V47.9091C38.003 45.1991 40.195 43.003 42.9 43H62.5C63.4021 43 64.1333 43.7326 64.1333 44.6364C64.1333 45.5401 63.4021 46.2727 62.5 46.2727H42.9C41.9983 46.2735 41.2675 47.0057 41.2667 47.9091V74.0909C41.2675 74.9943 41.9983 75.7265 42.9 75.7273H82.1C83.0017 75.7265 83.7325 74.9943 83.7333 74.0909V62.6148C83.7333 61.711 84.4646 60.9784 85.3667 60.9784C86.2687 60.9784 87 61.711 87 62.6148V74.0909C86.997 76.8009 84.805 78.997 82.1 79Z" fill="#183B56"/>
<path fill-rule="evenodd" clip-rule="evenodd" d="M54.6659 88H71.3341C71.8333 87.9997 72.3062 87.7693 72.6226 87.3721C72.939 86.9749 73.0656 86.4527 72.9676 85.9492L71.3007 77.3778C71.1449 76.577 70.4613 76.0004 69.6673 76H56.3327C55.5387 76.0004 54.8551 76.577 54.6993 77.3778L53.0324 85.9492C52.9344 86.4527 53.061 86.9749 53.3774 87.3721C53.6938 87.7693 54.1667 87.9997 54.6659 88ZM69.3006 84.5714H56.6994L57.6984 79.4286H68.3005L69.3006 84.5714Z" fill="#183B56"/>
<path d="M77.4 88H48.6C47.7163 88 47 87.1046 47 86C47 84.8954 47.7163 84 48.6 84H77.4C78.2837 84 79 84.8954 79 86C79 87.1046 78.2837 88 77.4 88Z" fill="#183B56"/>
<path d="M53.3333 65H46.6667C45.7462 65 45 64.1046 45 63C45 61.8954 45.7462 61 46.6667 61H53.3333C54.2538 61 55 61.8954 55 63C55 64.1046 54.2538 65 53.3333 65Z" fill="#FBBD92"/>
<path d="M59.4 71H46.6C45.7163 71 45 70.1046 45 69C45 67.8954 45.7163 67 46.6 67H59.4C60.2837 67 61 67.8954 61 69C61 70.1046 60.2837 71 59.4 71Z" fill="#FBBD92"/>
<path d="M72.4296 58C72.0181 58.0005 71.6234 57.8201 71.3328 57.4986L67.4546 53.2204C67.1635 52.8996 67 52.4644 67 52.0105C67 51.5567 67.1635 51.1214 67.4546 50.8007L71.3328 46.5225C71.7223 46.0776 72.2991 45.8992 72.8415 46.0558C73.3839 46.2124 73.8074 46.6797 73.9494 47.278C74.0914 47.8763 73.9296 48.5126 73.5264 48.9422L70.745 52.0105L73.5264 55.0789C73.9699 55.5683 74.1026 56.3042 73.8625 56.9436C73.6224 57.5829 73.0569 57.9999 72.4296 58Z" fill="#FBBD92"/>
<path d="M77.5009 59C77.0303 58.9991 76.5872 58.7697 76.3036 58.3802C76.0201 57.9907 75.9287 57.4859 76.0567 57.0163L79.0564 46.1287C79.2842 45.3024 80.1148 44.8241 80.9116 45.0603C81.7084 45.2966 82.1696 46.1579 81.9418 46.9842L78.9421 57.8717C78.7576 58.5387 78.17 58.9987 77.5009 59Z" fill="#FBBD92"/>
<path d="M85.0596 53.5507V56.5507" stroke="#183B56" stroke-width="3" stroke-linecap="round"/>
<path d="M83.5986 35.5996L69.3519 20.8338" stroke="#AEC6A4" stroke-width="4" stroke-linecap="round"/>
<path d="M71.615 34.9716L53.583 16.0019" stroke="#AEC6A4" stroke-width="4" stroke-linecap="round"/>
<path d="M59.6315 34.3436L34.9574 9.05243" stroke="#AEC6A4" stroke-width="4" stroke-linecap="round"/>
<defs>
<linearGradient id="paint0_linear" x1="-14.7291" y1="75.8849" x2="110.038" y2="128.592" gradientUnits="userSpaceOnUse">
<stop stop-color="#AEC6A4"/>
<stop offset="1" stop-color="#475B61"/>
</linearGradient>
</defs>
</svg>
