<svg width="8" height="15" viewBox="0 0 8 15" fill="none" xmlns="http://www.w3.org/2000/svg">
<path fill-rule="evenodd" clip-rule="evenodd" d="M1.23077 0L0 1.36364L5.53846 7.5L0 13.6364L1.23077 15L8 7.5L1.23077 0Z" fill="#183B56"/>
</svg>
