<svg width="1440" height="827" viewBox="0 0 1440 827" fill="none" xmlns="http://www.w3.org/2000/svg">
<path opacity="0.670317" fill-rule="evenodd" clip-rule="evenodd" d="M1455.55 200.648C1455.55 90.1034 1365.87 0.524452 1255.33 0.647894L-0.121338 2.04982V631.006C-0.121338 717.67 68.8789 788.581 155.511 790.946L1455.55 826.447V200.648Z" fill="url(#paint0_linear)"/>
<defs>
<linearGradient id="paint0_linear" x1="-73.263" y1="260.541" x2="1062.99" y2="-335.242" gradientUnits="userSpaceOnUse">
<stop stop-color="#DEF4FC"/>
<stop offset="1" stop-color="#F8FBFF"/>
</linearGradient>
</defs>
</svg>
