<svg width="19" height="18" viewBox="0 0 19 18" fill="none" xmlns="http://www.w3.org/2000/svg">
<path fill-rule="evenodd" clip-rule="evenodd" d="M9.34082 4C6.5794 4 4.34082 6.46243 4.34082 9.5C4.34082 12.5376 6.5794 15 9.34082 15" fill="#FBBD92"/>
<circle cx="9.02441" cy="9" r="8.5" transform="rotate(90 9.02441 9)" stroke="#FBBD92"/>
</svg>
