<svg width="1440" height="476" viewBox="0 0 1440 476" fill="none" xmlns="http://www.w3.org/2000/svg">
<path opacity="0.796642" fill-rule="evenodd" clip-rule="evenodd" d="M0 1.16923L1441 -0.0561523V250C1441 335.208 1374.22 405.467 1289.12 409.794L0 475.333L0 1.16923Z" fill="url(#paint0_linear)"/>
<mask id="mask0" mask-type="alpha" maskUnits="userSpaceOnUse" x="0" y="0" width="1441" height="476">
<path fill-rule="evenodd" clip-rule="evenodd" d="M0 1.22538L1441 0V250.056C1441 335.264 1374.22 405.523 1289.12 409.85L0 475.389L0 1.22538Z" fill="white"/>
</mask>
<g mask="url(#mask0)">
<ellipse cx="1385.43" cy="-40.8398" rx="629.5" ry="828.236" fill="url(#paint1_linear)"/>
<path fill-rule="evenodd" clip-rule="evenodd" d="M695.269 795.255L1.7315 817L0.926758 -3.99629L115.982 -1.03755L695.269 795.255Z" fill="url(#paint2_linear)"/>
</g>
<defs>
<linearGradient id="paint0_linear" x1="873.121" y1="42.8623" x2="581.895" y2="597.39" gradientUnits="userSpaceOnUse">
<stop stop-color="#EAF2F0"/>
<stop offset="1" stop-color="#F0FAFF"/>
</linearGradient>
<linearGradient id="paint1_linear" x1="380.835" y1="-877.94" x2="1833.92" y2="530.437" gradientUnits="userSpaceOnUse">
<stop stop-color="#D5EDE5"/>
<stop offset="1" stop-color="#F8FAFD"/>
</linearGradient>
<linearGradient id="paint2_linear" x1="7.43243" y1="-4" x2="7.43243" y2="801.615" gradientUnits="userSpaceOnUse">
<stop stop-color="#DEF3FC" stop-opacity="0.511364"/>
<stop offset="1" stop-color="#F2FBFF" stop-opacity="0.132594"/>
</linearGradient>
</defs>
</svg>
