<svg width="106" height="28" viewBox="0 0 106 28" fill="none" xmlns="http://www.w3.org/2000/svg">
<g filter="url(#filter0_d)">
<path d="M19.5093 0.478469V11.5311C19.5093 15.2153 17.886 16.7464 14.0664 16.7464C10.2468 16.7464 8.62351 15.2153 8.62351 11.5311V0H4.94717C4.61296 0 4.46973 0.143541 4.46973 0.478469V11.6746C4.46973 17.8469 8.38479 20 14.0664 20C19.748 20 23.6631 17.8469 23.6631 11.6746V0H19.9867C19.7003 0 19.5093 0.143541 19.5093 0.478469" fill="#5A7184"/>
<path d="M73.5604 3.26034C73.852 3.26034 73.9978 3.16302 74.095 2.91971L75.1642 0.243309C75.2127 0.0973236 75.1641 0 75.0184 0H59.9532C58.5438 0 58.0093 0.437956 58.0093 1.41119V18.8321C58.0093 19.6594 58.3981 20 59.5158 20H73.5604C73.852 20 73.9978 19.9027 74.095 19.6594L75.1642 16.983C75.2127 16.837 75.1641 16.7397 75.0184 16.7397H62.1401V13.1873C62.1401 11.9708 62.8204 11.3869 64.6185 11.3869H70.2072C70.4988 11.3869 70.6446 11.2895 70.7418 11.0462L71.7623 8.46715C71.8109 8.32117 71.7623 8.22384 71.6165 8.22384H62.0915V3.26034H73.5604" fill="#5A7184"/>
<path fill-rule="evenodd" clip-rule="evenodd" d="M49.0762 5.06083C49.0762 6.95864 48.415 8.56448 46.8094 9.44039C48.9817 10.073 49.9735 12.0681 49.9262 14.4526C49.9262 18.4428 47.1872 20 43.362 20H33.2086C32.1224 20 31.7446 19.6594 31.7446 18.8321V1.41119C31.7446 0.437956 32.2641 0 33.6336 0H41.9452C45.5815 0 49.0762 0.632604 49.0762 5.06083ZM35.7854 3H42.1589C44.2677 3 44.877 3.80189 44.877 5.5C44.877 7.15094 44.2677 8 42.1589 8H35.7854V3ZM42.9605 16H35.7854V12.6518C35.7854 11.5357 36.4463 11 38.1928 11H42.9605C45.2263 11 45.8872 11.8482 45.8872 13.5C45.8872 15.1964 45.2263 16 42.9605 16Z" fill="#5A7184"/>
<path fill-rule="evenodd" clip-rule="evenodd" d="M96.8645 11.9708L101.39 19.6594C101.489 19.7567 101.489 20 101.144 20H97.3073C97.0236 20 96.9216 19.8651 96.7831 19.6818C96.7775 19.6744 96.7718 19.6669 96.7661 19.6594L92.6829 12.3601H88.9441C87.1239 12.3601 86.4352 12.944 86.4352 14.1606V20H82.7456C82.4012 20 82.2537 19.854 82.2537 19.5134V1.41119C82.2537 0.437956 82.7948 0 84.2215 0H92.8797C97.8976 0 100.948 1.31387 100.948 6.18005C100.948 9.92701 99.1275 11.3869 96.8645 11.9708ZM86.2944 9H93.2393C95.8619 9 96.3961 7.992 96.3961 5.976C96.3961 4.008 95.8133 3 93.2393 3H86.2944V9Z" fill="#5A7184"/>
</g>
<defs>
<filter id="filter0_d" x="0.469727" y="0" width="104.977" height="28" filterUnits="userSpaceOnUse" color-interpolation-filters="sRGB">
<feFlood flood-opacity="0" result="BackgroundImageFix"/>
<feColorMatrix in="SourceAlpha" type="matrix" values="0 0 0 0 0 0 0 0 0 0 0 0 0 0 0 0 0 0 127 0"/>
<feOffset dy="4"/>
<feGaussianBlur stdDeviation="2"/>
<feColorMatrix type="matrix" values="0 0 0 0 0 0 0 0 0 0 0 0 0 0 0 0 0 0 0.25 0"/>
<feBlend mode="normal" in2="BackgroundImageFix" result="effect1_dropShadow"/>
<feBlend mode="normal" in="SourceGraphic" in2="effect1_dropShadow" result="shape"/>
</filter>
</defs>
</svg>
